<svg width="34" height="48" viewBox="0 0 34 48" fill="none" xmlns="http://www.w3.org/2000/svg">
<path d="M32.4741 38.8915C32.0858 38.8915 31.7709 39.2063 31.7709 39.5947V46.2053C31.7709 46.4194 31.5968 46.5936 31.3827 46.5936H27.603V32.747C27.603 32.3587 27.2882 32.0438 26.8999 32.0438C26.5116 32.0438 26.1968 32.3587 26.1968 32.747V46.5937H18.5857L20.7928 44.1655C21.0339 43.9002 21.1477 43.5223 21.0969 43.1543C21.096 43.1471 21.0949 43.14 21.0937 43.1329L18.9915 30.7141L19.5578 29.8615C19.871 30.0839 20.1122 30.298 20.5645 30.298C21.0247 30.298 21.4549 30.0405 21.6666 29.6166V29.6165L23.8838 25.1727L28.9346 27.1288C29.1173 27.2072 31.7708 28.4021 31.7708 31.5574V36.3133C31.7707 36.7015 32.0855 37.0164 32.4739 37.0164C32.8622 37.0164 33.177 36.7016 33.177 36.3133V31.5574C33.177 27.4001 29.6174 25.889 29.4659 25.8266C29.4615 25.8248 29.457 25.823 29.4525 25.8213L21.0461 22.5657V20.5942C22.3813 19.5558 23.3071 18.0165 23.5395 16.2604C24.2052 16.2135 24.8229 15.9649 25.3274 15.5311C25.9862 14.9646 26.3642 14.14 26.3642 13.2693C26.3642 12.5467 26.1035 11.8567 25.6388 11.319V8.71434C25.6388 3.90928 21.7296 0 16.9245 0C12.1194 0 8.21025 3.90928 8.21025 8.71434V11.3872C7.74066 11.9195 7.48528 12.5746 7.48528 13.2692C7.48528 14.1402 7.8631 14.9647 8.52207 15.5313C9.02616 15.9649 9.6435 16.2132 10.309 16.2602C10.5433 18.0492 11.4961 19.6459 12.945 20.6982V22.5657L4.54772 25.8212C4.54332 25.8229 4.53891 25.8247 4.5345 25.8264C4.38291 25.8888 0.82341 27.3999 0.82341 31.5572V46.2052C0.82341 47.1947 1.62844 47.9997 2.61797 47.9997H9.31707C9.70538 47.9997 10.0202 47.6849 10.0202 47.2966C10.0202 46.9083 9.70538 46.5935 9.31707 46.5935H7.80422V32.747C7.80422 32.3587 7.48941 32.0438 7.1011 32.0438C6.71278 32.0438 6.39797 32.3587 6.39797 32.747V46.5937H2.61807C2.40403 46.5937 2.22985 46.4195 2.22985 46.2054V31.5573C2.22985 28.3914 4.90107 27.1992 5.06513 27.1291L10.1121 25.1725L12.3294 29.6165C12.5416 30.0414 12.9724 30.298 13.4316 30.298C13.8817 30.298 14.1205 30.0872 14.4383 29.8615L15.0046 30.7141L12.9026 43.133C12.9014 43.14 12.9004 43.147 12.8993 43.1542C12.8485 43.522 12.9623 43.9001 13.2035 44.1656L15.4106 46.5938H12.5986C12.2103 46.5938 11.8955 46.9086 11.8955 47.2969C11.8955 47.6852 12.2103 48 12.5986 48H31.3828C32.3723 48 33.1774 47.1949 33.1774 46.2054V39.5947C33.1772 39.2063 32.8624 38.8915 32.4741 38.8915ZM22.5667 24.6627L20.4996 28.8055C20.4482 28.7691 19.3527 27.9907 18.0136 27.0398C18.5947 26.3226 17.9149 27.1616 20.5669 23.8883L22.5667 24.6627ZM18.4105 29.0468L17.8745 29.8538H16.1211L15.585 29.0468L16.9978 28.0434L18.4105 29.0468ZM14.3512 22.7926V21.4767C15.2054 21.8211 16.1183 21.9807 17.0099 21.9807C17.9318 21.9807 18.8358 21.7842 19.6398 21.4327V22.7983L16.9978 26.0594L14.3512 22.7926ZM24.9578 13.2693C24.9578 13.7299 24.7583 14.1657 24.4104 14.4649C24.1805 14.6627 23.9027 14.7892 23.5985 14.8387V11.7002C24.4066 11.8314 24.9578 12.5017 24.9578 13.2693ZM10.2509 14.8387C9.4336 14.706 8.89153 14.0302 8.89153 13.2692C8.89153 12.5175 9.51469 11.9057 10.2509 11.7355V14.8387ZM10.2887 10.3028C10.0647 10.3284 9.80803 10.3891 9.61669 10.4542V8.71434C9.61669 4.68469 12.8949 1.40634 16.9246 1.40634C20.9543 1.40634 24.2325 4.68469 24.2325 8.71434V10.4059C24.0281 10.3437 23.8162 10.3027 23.5986 10.2833C23.5986 9.60488 23.6045 9.73575 21.3849 7.34953C20.9768 6.91097 20.3016 6.81909 19.7877 7.15481C17.338 8.75503 14.3498 9.55894 11.5926 9.36094C10.9878 9.31566 10.4369 9.714 10.2887 10.3028ZM11.6573 15.3923V11.0055V10.7744C14.6924 10.9522 17.8746 10.0505 20.4453 8.40413C21.4632 9.49706 22.0145 10.0703 22.1922 10.2884C22.1922 10.84 22.1922 14.7607 22.1922 15.3922C22.1922 18.2466 19.8648 20.5743 17.01 20.5743C13.8043 20.5744 11.6573 18.0876 11.6573 15.3923ZM13.4962 28.8055L11.4291 24.6627L13.4253 23.8896L15.9791 27.0419C14.6804 27.9641 13.614 28.7218 13.4962 28.8055ZM14.3029 43.2846L16.3381 31.2599H17.6573L19.6925 43.2846L16.9977 46.2492L14.3029 43.2846Z" fill="#275ADB"/>
</svg>
